…
  separate(path, into = c("arm", "id"), sep = "\\_") %>% 
  mutate(id = str_replace(id, "\\.csv", ""),
         arm = recode (arm, exp = "experimental", con = "control")) %>% 
  select(id, everything()) %>% 
  unnest(data) %>% 
  pivot_longer(
    week_1:week_8, 
    names_to = "week", 
    names_prefix = "week_", 
    values_to = "observations") %>% 
  mutate(week = as.numeric(week), value = as.numeric(observations))
longitudinal_df
```

    ## # A tibble: 160 × 5
    ##    id    arm      week observations value
    ##    <chr> <chr>   <dbl>        <dbl> <dbl>
    ##  1 01    control     1         0.2   0.2 
    ##  2 01    control     2        -1.31 -1.31
    ##  3 01    control     3         0.66  0.66
    ##  4 01    control     4         1.96  1.96
    ##  5 01    control     5         0.23  0.23
    ##  6 01    control     6         1.09  1.09
    ##  7 01    control     7         0.05  0.05
    ##  8 01    control     8         1.94  1.94
    ##  9 02    control     1         1.13  1.13
    ## 10 02    control     2        -0.88 -0.88
    ## # … with 150 more rows
…
